{
  "type": "service_account",
  "project_id": "ionic-angular-api",
  "private_key_id": "4def1f4c28d1d098c55c3e7831c8ccf30cffa1de",
  "private_key": "-----BEGIN PRIVATE KEY-----\nMIIEvQIBADANBgkqhkiG9w0BAQEFAASCBKcwggSjAgEAAoIBAQDCs3ROuyMJlrax\nmZV4CVyXB4HYlvXnI8boRIN5FkIJ+xmqbo+j9+1mZImZM126Nvz68cA0HFGbHVHJ\nHpr14CPwzfpBmYazDBjaH7xEh21+AR6AyqgLU1nX0+jQD9Cec7LKoqc03pElc9HN\n9WPXNTdjw+2BK4xzDO2SeVBQcjuzl9NOxaLY64c0hO6TP0sxCDlsZnOcXAqCKggr\nHMFSUSUgyEwWKRnqjk5SS3hpgLkMYDNDz072bQBcYzGfYVIsEw4/5SjrMY7rUvEG\nindcQE2FmTYw0Tl9EVDcUd0+h6+4uiuSZgaOIXXG/v5xNveay5MLBvZ7ef4IPyaV\nImCd5EJhAgMBAAECggEAAKa/ipzjKN7NdSolnx1u5x1yEIKux2tt+Kx0ASVzKpvh\nsdmFVv/XFjrbX/0VQPB6p69D3JjEqB9wvNrCm3R4wk86GVqVYgd2FNK620LVubBw\nxO8IoWMRv6BYnMuUv9b0v+tL4mglNaodx1HdF+T4brfC1WYLJf5i1BTeUSqUqwzj\nOynf47n+Bv5F7NRjVgqzVrWZNLYN2qSLSRca6KzP2fhU82N33bN9OxnrdYSDTcwU\nV2xWP0Ae8VkLviNsl8DQpLL7td/Fi2G8cLzH+foM+i+z9FuLP+FaFqtDclymuSYb\nyU/GGkNjX6/aOhpb8Np2RjUOEEt7JiOodHSScFJt3QKBgQDyHhwXSEWDZWWAg4b0\nGUgFyrlRHJTCYjIGioMeG+JBnfy8fy01At65DRTHKlFMdDL/d4Sck/PQopzBo45b\nUuMcQow6Dokx1jJrdgdwxRvtzF/NccdxoerU13FKuuPa7dI6NC99rjw1P6Wp0sOh\nQkJUWDgQmq7gpcOZcAoIqcVKfQKBgQDN3VigLBRZpVJRCvnTO+d01NU5fW53ebPI\n11Be3zAZLxi3UsXi9LLfmbCjTvsW/xAkUvF3nCH5LRcwbONVN981Zykqk7PXy4gQ\nP/q/pf9bEXX19QrSvreY5KYObVdAvRdOlCUe3r0Z6N9qRZxx1CACqRU49Ex+csM/\n8yXlESx4tQKBgQCjIN5UYYFUcnDdEcFPnekE3f3WRKeGAJssBQ8qribXhxbN+fH/\nkZt2mvWw6zYziOcDcQeMZ7MSkz2CyiwUI9iZJc1NIJYXWfZGqROCS4vxwI2b4lk6\nmpmaJj5S13DGBQ5r4NVOnKI8TlHUBgmBER+XrIi5xz6kZYtQSki4ZYpkEQKBgC29\n+w1L/hGVPF8pky0uaFV7XQ1zI3KEpkAAJ6mM6gEOh+1kBPhS6tPoMGl5CS2o6wtH\nKsQq+xmEvVxTNYgf7AbPr0P4ocNXRBpoPO0Mk1rG3HEUS51cJytf0s3t2a9W1LDv\nFfhwAZCaP9o7MXHRcnNk4oRPNBf8pAm3mzn0wO7pAoGAHQL1A+ZEKCSWM8zZ96Zh\nXzZiCGE6On2nRXnur4QIWTo+Qlg82Vd83IaUgfAouVUf4ayedjkp6N7FsMGe4PPa\n7JLUpnKdfI0lle8lFwHE6mHqABmCjj/C1SiK1XuzdLdrBBtM81BC7OqBFkXCwSa8\nfYn5Jwomo102qnuBjm78+bc=\n-----END PRIVATE KEY-----\n",
  "client_email": "firebase-adminsdk-yrc62@ionic-angular-api.iam.gserviceaccount.com",
  "client_id": "106175603841431162189",
  "auth_uri": "https://accounts.google.com/o/oauth2/auth",
  "token_uri": "https://oauth2.googleapis.com/token",
  "auth_provider_x509_cert_url": "https://www.googleapis.com/oauth2/v1/certs",
  "client_x509_cert_url": "https://www.googleapis.com/robot/v1/metadata/x509/firebase-adminsdk-yrc62%40ionic-angular-api.iam.gserviceaccount.com"
}
